<svg xmlns="http://www.w3.org/2000/svg" version="1.1" width="200" height="200">
    <defs>
        <style type="text/css">
            @font-face {
                font-family: RewirLight;
                src: url(../font/Rewir-Light.woff)
            }
        </style>
    </defs>
    <text font-size="24" font-weight="bold" text-align="center"
          text-anchor="middle" fill="#999999" font-family="RewirLight">
        <tspan x="100" y="70">Brak</tspan>
        <tspan x="100" y="130">zdjęcia</tspan>
    </text>
</svg>